81669 914245 525
904143 505929 525
967550 538183 525
999290 408931 525
887386 433232 525
211934 695588 509
373774 545256 470
660875 236154 509
886270 352190 525
517774 814444 509
883604 21578 525
317666 133368 443
689624 703368 442
816561 447737 509
975318 435718 525
857168 563190 525
403894 615283 470
451128 980071 525
979744 430352 525
355562 938395 525
458694 767093 509
539389 90028 470
136683 686035 509
76156 765384 509
433478 954682 525
533272 404969 470
904010 802845 525
667485 796125 504
1 10 20
100 200 125
201 210 89
900 1000 174
6058 16047 276
2389 36097 324
32446 34498 311
2555 15668 276
36671 39523 306
37279 47984 314
5201 35254 311
24398 40885 324
29520 36813 324
20539 30520 308
39408 41748 306
33189 42910 324
26958 35801 324
4255 19356 279
40803 47778 314
14125 26440 282
20856 40442 324
20398 47281 324
6763 18190 279
35046 43802 324
46308 49201 314
181 44656 324
39193 43574 306
37049 44635 306
48642 49097 296
3028 31415 308
24837 26324 264
13717 20149 279
13259 35037 311
33698 49376 324
36193 39060 306
9689 38689 324
65551 968393 525
599228 107851 470
408732 526965 470
404530 541204 470
406258 447887 449
145379 368090 443
818389 207761 509
313955 273056 389
729514 417109 509
794850 280950 509
561682 520543 452
989652 622892 525
446163 510743 444
257883 164165 443
299782 400740 441
383815 993920 525
686455 726552 504
273491 447569 449
644001 308175 509
384901 327108 441
690250 912672 525
634357 675808 442
895758 366149 525
199569 633200 509
279300 687608 509
916271 417152 525
520466 240121 470
757135 179077 509
97489 987926 525
15694 79084 351
640177 302557 509
572397 189576 470
714900 356714 509
798032 865651 525
716946 800310 468
245168 161676 443
203890 593227 470
88545 157297 383
731283 649044 504
861239 55017 525
108142 543894 470
466339 106438 449
960846 632655 525
44055 141689 354
285013 542678 470
153504 999234 525
37029 571313 470
607861 142592 470
704209 434559 509
372561 584641 470
69076 779401 509
827198 604484 509
401089 572696 470
539008 925011 525
709801 673938 504
262774 504536 449
957292 506930 525
724871 692427 504
219138 464620 449
873280 769288 525
401607 907292 525
949695 528226 525
557075 248577 470
401561 178486 443
591454 973958 525
184856 88999 383
281905 577097 470
307739 963980 525
723165 659397 504
261696 289049 407
457828 176871 449
436068 864158 525
304652 492010 449
546513 431100 470
293199 749847 509
657680 617373 509
827206 494380 509
417408 177090 449
908971 191498 525
749469 820541 468
196809 240715 443
960960 242903 525
210898 606194 470
947381 162498 525
547834 187499 470
104832 8216 351
52213 906353 525
457790 160803 449
101678 392947 443
832953 185400 509
133459 135423 344
787377 119035 509
947535 398788 525
58080 925554 525
885935 272307 525
1540 831123 509
829348 145274 509
588839 950595 525
560986 792464 509
952500 412327 525
989234 283641 525
501735 610213 470
878999 647903 525
133474 447251 449
516527 385053 470
473491 63431 449
752074 330792 509
867733 408185 525
937959 786951 525
977985 546562 525
403091 563689 470
84758 517876 470
965992 540407 525
985098 670548 525
422568 100887 449
537723 248442 470
464063 361564 449
386791 731078 509
127175 898112 525
881528 763160 525
271594 787004 509
407799 433732 449
240292 886040 525
717634 58616 509
628884 880628 525
331382 618704 470
590918 563621 434
457703 966682 525
288671 282212 389
706750 660301 504
433722 382400 449
858027 276062 525
878621 175206 525
673159 355158 509
441911 483410 444
338617 283236 389
494831 906631 525
709891 350761 509
617656 676919 509
785964 689582 504
175143 561592 470
586400 939507 525
446899 389042 449
674420 149616 509
802381 709503 468
97087 106814 354
275515 128750 443
364686 186088 443
395496 573516 470
796038 775679 437
751504 837019 468
467047 39913 449
583609 96470 470
305049 875177 525
309318 377457 441
538350 317436 470
126646 745160 509
312671 433913 449
237827 997811 525
815877 946999 525
154131 195981 383
992937 937733 507
508673 663529 509
700949 733123 504
431198 937018 525
502093 718253 509
334687 507327 449
682314 83873 509
678485 496451 509
827918 87753 509
964853 907003 507
887405 284973 525
910433 499328 525
497002 415985 444
157516 796637 509
494631 748684 509
243278 922906 525
896579 573667 525
303964 73735 443
509635 804064 509
286934 514574 470
474069 357631 449
319090 705400 509
730013 458380 509
221628 854884 525
283802 933543 525
107117 275543 443
218593 358063 443
322307 476555 449
408245 247457 441
329869 351695 441
461447 616933 470
736736 763139 424
313400 962930 525
42716 246169 443
967705 713909 525
